Excel vs R: A Brief Introduction to R
…
Before doing anything with the data, it is necessary to set up our environment in R. This means loading the packages that we will be using with the library() command. If you have not already downloaded the necessary packages, this can be done with the install.packages() command with the name of the desired package in quotation marks. To begin we only need to load the tidyverse package, which includes the individual packages that I will use for the analysis.

library(tidyverse)

Once this is done, it is possible to use the functions from the tidyverse packages, beginning with reading our data into R with the read_csv() function. The code below takes a csv file from a location on my computer and loads it into R as a data frame, while saving the object under the name letters.13 The code can be read as “create a data frame object called letters from the csv file named correspondence-data-1585.csv.”

letters <- read_csv("data/correspondence-data-1585.csv")

Even before anything has been done to manipulate the data, we are already in a better position than if we kept the data in Excel. Having loaded the data, all further manipulations will be done on the object letters, and no changes will be made to the correspondence-data-1585.csv file. In other words, there is no way to tamper with the database that may have taken hours (or more) to meticulously produce.

Let’s start by taking a look at the data itself by printing out a subset of the data to the console, which can be done by typing the name of the object into the console.14

letters

## # A tibble: 114 x 4
##                     writer  source destination       date
##                      <chr>   <chr>       <chr>     <date>
##  1 Meulen, Andries van der Antwerp       Delft 1585-01-03
##  2 Meulen, Andries van der Antwerp     Haarlem 1585-01-09
##  3 Meulen, Andries van der Antwerp     Haarlem 1585-01-11
##  4 Meulen, Andries van der Antwerp       Delft 1585-01-12
##  5 Meulen, Andries van der Antwerp     Haarlem 1585-01-12
##  6 Meulen, Andries van der Antwerp       Delft 1585-01-17
##  7 Meulen, Andries van der Antwerp       Delft 1585-01-22
##  8 Meulen, Andries van der Antwerp       Delft 1585-01-23
##  9    Della Faille, Marten Antwerp     Haarlem 1585-01-24
## 10 Meulen, Andries van der Antwerp       Delft 1585-01-28
## # ... with 104 more rows
…
Combining data for correspondents and dates

The group_by() and summarise() workflow developed so far results in data frames with two columns and thus only tells us about one variable from the data at a time. We can get a better understanding of Daniel’s network by looking into how many letters each writer sent per month, which would involve the creation of a data frame with three columns. One advantage of using code is that it is often relatively simple to take a functioning line of code and tweak it to create a different result. Here, I take the line of code that produced per_month and alter it by adding the writer variable to the group_by function. Now the code will group the letters written by each correspondent per month and then count them. Notice how the dimensions of the resulting data frame has changed.

correspondent_month <- letters %>% 
  mutate(month = month(date, label = TRUE)) %>% 
  group_by(writer, month) %>% 
  summarise(count = n()) %>% 
  arrange(desc(count))
correspondent_month

## # A tibble: 34 x 3
## # Groups:   writer [12]
##                     writer month count
##                      <chr> <ord> <int>
##  1 Meulen, Andries van der   Mar    12
##  2 Meulen, Andries van der   Jan    10
##  3 Meulen, Andries van der   Feb     9
##  4 Meulen, Andries van der   Jul     8
##  5   Della Faille, Jacques   Aug     7
##  6   Della Faille, Jacques   Sep     7
##  7 Meulen, Andries van der   Apr     7
##  8 Meulen, Andries van der   May     7
##  9   Della Faille, Jacques   May     5
## 10 Meulen, Andries van der   Jun     5
## # ... with 24 more rows
…
