Introduction to Network Analysis with R
…
Creating edge and node lists

To create network objects from the database of letters received by Daniel van der Meulen in 1585 I will make both an edge list and a node list. This will necessitate the use of the dplyr package to manipulate the data frame of letters sent to Daniel and split it into two data frames ot tibbles with the structure of edge and node lists. In this case, the nodes will be the cities from which Daniel’s correspondents sent him letters and the cities in which he received them. The node list will contain a “label” column, containing the names of the cities. The edge list will also have an attribute column that will show the amount of letters sent between each pair of cities. The workflow to create these objects will be similar to that I have used in my brief introduction to R and in geocoding with R. If you would like to follow along, you can find the data used in this post and the R script used on GitHub.

The first step is to load the tidyverse library to import and manipulate the data. Printing out the letters data frame shows that it contains four columns: “writer”, “source”, “destination”, and “date”. In this example, we will only deal with the “source” and “destination” columns.

library(tidyverse)
letters <- read_csv("data/correspondence-data-1585.csv")

letters

## # A tibble: 114 x 4
##                     writer  source destination       date
##                      <chr>   <chr>       <chr>     <date>
##  1 Meulen, Andries van der Antwerp       Delft 1585-01-03
##  2 Meulen, Andries van der Antwerp     Haarlem 1585-01-09
##  3 Meulen, Andries van der Antwerp     Haarlem 1585-01-11
##  4 Meulen, Andries van der Antwerp       Delft 1585-01-12
##  5 Meulen, Andries van der Antwerp     Haarlem 1585-01-12
##  6 Meulen, Andries van der Antwerp       Delft 1585-01-17
##  7 Meulen, Andries van der Antwerp       Delft 1585-01-22
##  8 Meulen, Andries van der Antwerp       Delft 1585-01-23
##  9    Della Faille, Marten Antwerp     Haarlem 1585-01-24
## 10 Meulen, Andries van der Antwerp       Delft 1585-01-28
## # ... with 104 more rows
…
